…
```r
card_fraud %>% 
  count(job, sort=TRUE) %>% 
  mutate(perc = n/sum(n))
```

```
## # A tibble: 494 × 3
##    job                            n    perc
##    <chr>                      <int>   <dbl>
##  1 Film/video editor           5106 0.00761
##  2 Exhibition designer         4728 0.00705
##  3 Naval architect             4546 0.00677
##  4 Surveyor, land/geomatics    4448 0.00663
##  5 Materials engineer          4292 0.00640
##  6 Designer, ceramics/pottery  4262 0.00635
##  7 IT trainer                  4014 0.00598
##  8 Financial adviser           3959 0.00590
##  9 Systems developer           3948 0.00588
## 10 Environmental consultant    3831 0.00571
## # ℹ 484 more rows
```
…
```r
log_res %>%  collect_metrics(summarize = FALSE) # show performance for every single fold
```

```
## # A tibble: 24 × 5
##    id    .metric   .estimator .estimate .config             
##    <chr> <chr>     <chr>          <dbl> <chr>               
##  1 Fold1 recall    binary        0.0120 Preprocessor1_Model1
##  2 Fold1 precision binary        0.25   Preprocessor1_Model1
##  3 Fold1 f_meas    binary        0.0230 Preprocessor1_Model1
##  4 Fold1 accuracy  binary        0.995  Preprocessor1_Model1
##  5 Fold1 kap       binary        0.0226 Preprocessor1_Model1
##  6 Fold1 sens      binary        0.0120 Preprocessor1_Model1
##  7 Fold1 spec      binary        1.00   Preprocessor1_Model1
##  8 Fold1 roc_auc   binary        0.808  Preprocessor1_Model1
##  9 Fold2 recall    binary        0      Preprocessor1_Model1
## 10 Fold2 precision binary        0      Preprocessor1_Model1
## # ℹ 14 more rows
```
…
